…
Task 06
-------

### Working with a nested dataframe

``` r
#first, let's make a nested dataframe by grouping continent and country variable.
(nest_gapminder <- gapminder %>% 
  group_by(continent, country) %>% 
  nest())
```

    ## # A tibble: 142 x 3
    ##    continent country     data             
    ##    <fct>     <fct>       <list>           
    ##  1 Asia      Afghanistan <tibble [12 × 4]>
    ##  2 Europe    Albania     <tibble [12 × 4]>
    ##  3 Africa    Algeria     <tibble [12 × 4]>
    ##  4 Africa    Angola      <tibble [12 × 4]>
    ##  5 Americas  Argentina   <tibble [12 × 4]>
    ##  6 Oceania   Australia   <tibble [12 × 4]>
    ##  7 Europe    Austria     <tibble [12 × 4]>
    ##  8 Asia      Bahrain     <tibble [12 × 4]>
    ##  9 Asia      Bangladesh  <tibble [12 × 4]>
    ## 10 Europe    Belgium     <tibble [12 × 4]>
    ## # ... with 132 more rows
…
    ## Warning in rlm.default(x, y, weights, method = method, wt.method =
    ## wt.method, : 'rlm' failed to converge in 20 steps

    ## Warning in rlm.default(x, y, weights, method = method, wt.method =
    ## wt.method, : 'rlm' failed to converge in 20 steps

    ## Warning in rlm.default(x, y, weights, method = method, wt.method =
    ## wt.method, : 'rlm' failed to converge in 20 steps

    ## # A tibble: 284 x 6
    ##    continent country     term           estimate std.error statistic
    ##    <fct>     <fct>       <chr>             <dbl>     <dbl>     <dbl>
    ##  1 Asia      Afghanistan (Intercept)      29.9     0.664       45.0 
    ##  2 Asia      Afghanistan I(year - 1952)    0.275   0.0205      13.5 
    ##  3 Europe    Albania     (Intercept)      59.9     0.935       64.1 
    ##  4 Europe    Albania     I(year - 1952)    0.316   0.0288      11.0 
    ##  5 Africa    Algeria     (Intercept)      43.2     0.601       71.8 
    ##  6 Africa    Algeria     I(year - 1952)    0.576   0.0185      31.1 
    ##  7 Africa    Angola      (Intercept)      32.1     0.941       34.2 
    ##  8 Africa    Angola      I(year - 1952)    0.209   0.0290       7.21
    ##  9 Americas  Argentina   (Intercept)      62.7     0.143      438.  
    ## 10 Americas  Argentina   I(year - 1952)    0.233   0.00440     52.9 
    ## # ... with 274 more rows

``` r
#Make the dataframe looks more handy by spreading the term and estimate
(gapminder_rlm_ests<-nest_gapminder_robust %>% 
    select(continent:estimate) %>% 
    mutate(term=recode(term,
                     `(Intercept)`="Intercept",
                     `I(year - 1952)`='slope')) %>% 
  spread(key=term,value=estimate))
```

    ## # A tibble: 142 x 4
    ##    continent country                  Intercept  slope
    ##    <fct>     <fct>                        <dbl>  <dbl>
    ##  1 Africa    Algeria                       43.2 0.576 
    ##  2 Africa    Angola                        32.1 0.209 
    ##  3 Africa    Benin                         39.6 0.334 
    ##  4 Africa    Botswana                      52.9 0.0607
    ##  5 Africa    Burkina Faso                  34.7 0.364 
    ##  6 Africa    Burundi                       40.6 0.154 
    ##  7 Africa    Cameroon                      41.2 0.250 
    ##  8 Africa    Central African Republic      38.8 0.184 
    ##  9 Africa    Chad                          39.8 0.255 
    ## 10 Africa    Comoros                       40.0 0.451 
    ## # ... with 132 more rows
…
